#############
#############  Input file for the MONSTER script! 
#############
Do_Relax="T" # Flag which tells monster script to do relaxations
Do_Propagations="T" # If Do_Relax is false, but this is true, skip straight to propagations
Propagation_Start="BINR" ##"BINR" or "HAND";  When skipping relaxations, how to start propagations
Do_Analysis="T" # If Do_Relax and Do_Propagations are false, and this is true, skip straight to analysis
OutputFile="Output" # name of output file

################## Computation Details ########################
MonsterName="Storm"     # Unique identifier to label jobs in the queue, use 6 characters and make sure its unique!
runhost="PC"        # Name of the platform where the program is executed
                    # possible choices: "PC" (runs program locally) 
                    #                   "maia" (runs program with a runscript on the maia cluster in basel)
                    #                   "hornet" (runs program on the hermit computer at the HLRS in stuttgart)
                    #                   "inScript" (runs program locally inside of a runscpript on a cluster, in this case "binary" below should specify the whole command line to execute one computation like "mpirun -np 4 ./MCTDHX_gcc" or similar")
ConvDig=12          # How many digits shall be converged in relaxations
                   
numnodes=2          # In clusters put here the number of nodes to use for a RELAXATION.
MPMD="T"            # Uses MPMD mode if equal to "T"
MPMDjobs=1          # For RELAXATION: In clusters put here the number of computations per runscript (for hermit only).
MPMDnodes=26        # In clusters put here the number of computations per runscript (for hermit only).
maxjobs=20          # Maximal number of jobs the script will allow in the queue simultaneously

binary="MCTDHX_gcc" # Name of MCTDHX executable in the working directory
Relaxation_Template="MCTDHX.inp" # Name of the Input template for the relaxations
Propagation_Template="MCTDHX.inp" # Name of the Input template for the propagations. 
                                  # Important note: If a different template is used, 
                                  #                 relaxation parameters will not be implemented in the propagation template.

################## Relaxation Parameters ######################
Relaxtime=3.0 # Time up to which individual relaxations are run until convergence is checked
NParameters=1            # Give the number of parameters to scan

Parameter1="Morb"        # Give parameter 1 of scan
List1="T"                # If a list of parameters is specified this is "T" or if a sequence is generated this is not "T"
Parameter1List="1 5 7"   # If List1="T" specify the desired parameter values here
Scan1_Start=1            # Give start of parameter1 scan
Scan1_Stop=10            # Give stop of parameter1 scan
Scan1_Step=1             # Give step of parameter1 scan

Parameter2="parameter1"    # Give Parameter 2 of scan
List2="F"                # If a list of parameters is specified this is "T" or if a sequence is generated this is not "T"
Parameter2List="1 5 7"   # If List2="T" specify the desired parameter values here
Scan2_Start=0.1            # Give start of parameter2 scan
Scan2_Stop=1.0             # Give stop of parameter2 scan
Scan2_Step=0.1             # Give step of parameter2 scan

Parameter3="BH_U"          # Give Parameter 3 of scan
List3="F"                # If a list of parameters is specified this is "T" or if a sequence is generated this is not "T"
Parameter3List="1 5 7"   # If List3="T" specify the desired parameter values here
Scan3_Start=1.0            # Give start of parameter3 scan
Scan3_Stop=10.0           # Give stop of parameter3 scan
Scan3_Step=1.0             # Give step of parameter3 scan

Parameter4=             # Give Parameter 4 of scan
List4="F"                # If a list of parameters is specified this is "T" or if a sequence is generated this is not "T"
Parameter4List="1 5 7"   # If List4="T" specify the desired parameter values here
Scan4_Start=            # Give start of parameter4 scan
Scan4_Stop=             # Give stop of parameter4 scan
Scan4_Step=             # Give step of parameter4 scan

Parameter5=             # Give Parameter 5 of scan
List5="F"                # If a list of parameters is specified this is "T" or if a sequence is generated this is not "T"
Parameter5List="1 5 7"   # If List5="T" specify the desired parameter values here
Scan5_Start=            # Give start of parameter5 scan
Scan5_Stop=             # Give stop of parameter5 scan
Scan5_Step=             # Give step of parameter5 scan


################################### Propagation Parameters ###################################
################################### Propagation Parameters ###################################
################################### Propagation Parameters ###################################
################################### Propagation Parameters ###################################
################################### Propagation Parameters ###################################
################################### Propagation Parameters ###################################
################################### Propagation Parameters ###################################
################################### Propagation Parameters ###################################
MaxNodes=8                    # Propagations will use min(M/2, MaxNodes) nodes each
Prop_Time_Final=500.0         # Time for propagations to run

Prop_NParameters=2            # Give the number of propagation parameters to scan

Prop_Parameter1="parameter1"        # Give parameter 1 of scan
Prop_List1="F"                # If a list of parameters is specified this is "T" or if a sequence is generated this is not "T"
Prop_Parameter1List="1 5 7"   # If List1="T" specify the desired parameter values here
Prop_Scan1_Start=0.7            # Give start of parameter1 scan
Prop_Scan1_Stop=1.0            # Give stop of parameter1 scan
Prop_Scan1_Step=0.02             # Give step of parameter1 scan

Prop_Parameter2="parameter2"    # Give Parameter 2 of scan
Prop_List2="F"                # If a list of parameters is specified this is "T" or if a sequence is generated this is not "T"
Prop_Parameter2List="1 5 7"   # If List2="T" specify the desired parameter values here
Prop_Scan2_Start=0.1            # Give start of parameter2 scan
Prop_Scan2_Stop=0.4             # Give stop of parameter2 scan
Prop_Scan2_Step=0.05             # Give step of parameter2 scan

Prop_Parameter3="parameter5"          # Give Parameter 3 of scan
Prop_List3="F"                # If a list of parameters is specified this is "T" or if a sequence is generated this is not "T"
Prop_Parameter3List="1 5 7"   # If List3="T" specify the desired parameter values here
Prop_Scan3_Start=1.0            # Give start of parameter3 scan
Prop_Scan3_Stop=10.0           # Give stop of parameter3 scan
Prop_Scan3_Step=1.0             # Give step of parameter3 scan

Prop_Parameter4="parameter7"             # Give Parameter 4 of scan
Prop_List4="F"                # If a list of parameters is specified this is "T" or if a sequence is generated this is not "T"
Prop_Parameter4List=""   # If List4="T" specify the desired parameter values here
Prop_Scan4_Start=            # Give start of parameter4 scan
Prop_Scan4_Stop=             # Give stop of parameter4 scan
Prop_Scan4_Step=             # Give step of parameter4 scan

Prop_Parameter5="parameter9"             # Give Parameter 5 of scan
Prop_List5="F"                # If a list of parameters is specified this is "T" or if a sequence is generated this is not "T"
Prop_Parameter5List="parameter9"   # If List5="T" specify the desired parameter values here
Prop_Scan5_Start=            # Give start of parameter5 scan
Prop_Scan5_Stop=             # Give stop of parameter5 scan
Prop_Scan5_Step=             # Give step of parameter5 scan




################################### Analysis Parameters ###################################
AnalBin="MCTDHX_analysis_gcc"  ## Name of analysis executable in working directory
AnalTemplate="analysis.inp"      ## Name of analysis input template in working directory
AnalFactor=1                     ## Compute analysis in units if Output_TimeStep in MCTDHX.inp, 1 for every time step, 2 for every other, etc.
AnalTaskLimit=24                 ## Number of analysis tasks to run in one node
AnalRunTime="12:00:00"           ## Time string to run analysis jobs for.  requesting less than 24hr may allow the jobs to wait less on the queue
AnalRunTime_Relax="12:00:00"     ## Time string for running the analysis jobs of the final time-slice of the relaxation. This can be quite small, since only one-time point is analyzed
                                 ## should be greater than 5 mins so runflagsleeper doesnt break

